%YAML 1.1
%TAG !u! tag:unity3d.com,2011:
--- !u!1045 &1
EditorBuildSettings:
  m_ObjectHideFlags: 0
  serializedVersion: 2
  m_Scenes:
  - enabled: 1
    path: Assets/Scenes/Title.unity
  - enabled: 1
    path: Assets/Scenes/Game.unity
  - enabled: 1
    path: Assets/Scenes/Ranking.unity
  - enabled: 1
    path: Assets/Scenes/Result.unity
  - enabled: 1
    path: Assets/Scenes/Rank.unity
  - enabled: 1
    path: Assets/Scenes/RankIn.unity
  - enabled: 1
    path: Assets/Scenes/StageSelect.unity
  - enabled: 1
    path: Assets/Scenes/Tutorial.unity
  - enabled: 1
    path: Assets/Scenes/Demo.unity
