%YAML 1.1
%TAG !u! tag:unity3d.com,2011:
--- !u!13 &1
InputManager:
  m_ObjectHideFlags: 0
  m_Axes:
  - serializedVersion: 3
    m_Name: Horizontal
    descriptiveName: 
    descriptiveNegativeName: 
    negativeButton: left
    positiveButton: right
    altNegativeButton: a
    altPositiveButton: d
    gravity: 3
    dead: .00100000005
    sensitivity: 3
    snap: 1
    invert: 0
    type: 0
    axis: 0
    joyNum: 0
  - serializedVersion: 3
    m_Name: Vertical
    descriptiveName: 
    descriptiveNegativeName: 
    negativeButton: down
    positiveButton: up
    altNegativeButton: s
    altPositiveButton: w
    gravity: 3
    dead: .00100000005
    sensitivity: 3
    snap: 1
    invert: 0
    type: 0
    axis: 0
    joyNum: 0
  - serializedVersion: 3
    m_Name: Fire1
    descriptiveName: 
    descriptiveNegativeName: 
    negativeButton: 
    positiveButton: left ctrl
    altNegativeButton: 
    altPositiveButton: mouse 0
    gravity: 1000
    dead: .00100000005
    sensitivity: 1000
    snap: 0
    invert: 0
    type: 0
    axis: 0
    joyNum: 0
  - serializedVersion: 3
    m_Name: Fire2
    descriptiveName: 
    descriptiveNegativeName: 
    negativeButton: 
    positiveButton: left alt
    altNegativeButton: 
    altPositiveButton: mouse 1
    gravity: 1000
    dead: .00100000005
    sensitivity: 1000
    snap: 0
    invert: 0
    type: 0
    axis: 0
    joyNum: 0
  - serializedVersion: 3
    m_Name: Fire3
    descriptiveName: 
    descriptiveNegativeName: 
    negativeButton: 
    positiveButton: left cmd
    altNegativeButton: 
    altPositiveButton: mouse 2
    gravity: 1000
    dead: .00100000005
    sensitivity: 1000
    snap: 0
    invert: 0
    type: 0
    axis: 0
    joyNum: 0
  - serializedVersion: 3
    m_Name: Jump
    descriptiveName: 
    descriptiveNegativeName: 
    negativeButton: 
    positiveButton: space
    altNegativeButton: 
    altPositiveButton: 
    gravity: 1000
    dead: .00100000005
    sensitivity: 1000
    snap: 0
    invert: 0
    type: 0
    axis: 0
    joyNum: 0
  - serializedVersion: 3
    m_Name: Mouse X
    descriptiveName: 
    descriptiveNegativeName: 
    negativeButton: 
    positiveButton: 
    altNegativeButton: 
    altPositiveButton: 
    gravity: 0
    dead: 0
    sensitivity: .100000001
    snap: 0
    invert: 0
    type: 1
    axis: 0
    joyNum: 0
  - serializedVersion: 3
    m_Name: Mouse Y
    descriptiveName: 
    descriptiveNegativeName: 
    negativeButton: 
    positiveButton: 
    altNegativeButton: 
    altPositiveButton: 
    gravity: 0
    dead: 0
    sensitivity: .100000001
    snap: 0
    invert: 0
    type: 1
    axis: 1
    joyNum: 0
  - serializedVersion: 3
    m_Name: Mouse ScrollWheel
    descriptiveName: 
    descriptiveNegativeName: 
    negativeButton: 
    positiveButton: 
    altNegativeButton: 
    altPositiveButton: 
    gravity: 0
    dead: 0
    sensitivity: .100000001
    snap: 0
    invert: 0
    type: 1
    axis: 2
    joyNum: 0
  - serializedVersion: 3
    m_Name: Horizontal
    descriptiveName: 
    descriptiveNegativeName: 
    negativeButton: 
    positiveButton: 
    altNegativeButton: 
    altPositiveButton: 
    gravity: 0
    dead: .189999998
    sensitivity: 1
    snap: 0
    invert: 0
    type: 2
    axis: 0
    joyNum: 0
  - serializedVersion: 3
    m_Name: Vertical
    descriptiveName: 
    descriptiveNegativeName: 
    negativeButton: 
    positiveButton: 
    altNegativeButton: 
    altPositiveButton: 
    gravity: 0
    dead: .189999998
    sensitivity: 1
    snap: 0
    invert: 1
    type: 2
    axis: 1
    joyNum: 0
  - serializedVersion: 3
    m_Name: Fire1
    descriptiveName: 
    descriptiveNegativeName: 
    negativeButton: 
    positiveButton: joystick button 0
    altNegativeButton: 
    altPositiveButton: 
    gravity: 1000
    dead: .00100000005
    sensitivity: 1000
    snap: 0
    invert: 0
    type: 0
    axis: 0
    joyNum: 0
  - serializedVersion: 3
    m_Name: Fire2
    descriptiveName: 
    descriptiveNegativeName: 
    negativeButton: 
    positiveButton: joystick button 1
    altNegativeButton: 
    altPositiveButton: 
    gravity: 1000
    dead: .00100000005
    sensitivity: 1000
    snap: 0
    invert: 0
    type: 0
    axis: 0
    joyNum: 0
  - serializedVersion: 3
    m_Name: Fire3
    descriptiveName: 
    descriptiveNegativeName: 
    negativeButton: 
    positiveButton: joystick button 2
    altNegativeButton: 
    altPositiveButton: 
    gravity: 1000
    dead: .00100000005
    sensitivity: 1000
    snap: 0
    invert: 0
    type: 0
    axis: 0
    joyNum: 0
  - serializedVersion: 3
    m_Name: Jump
    descriptiveName: 
    descriptiveNegativeName: 
    negativeButton: 
    positiveButton: joystick button 3
    altNegativeButton: 
    altPositiveButton: 
    gravity: 1000
    dead: .00100000005
    sensitivity: 1000
    snap: 0
    invert: 0
    type: 0
    axis: 0
    joyNum: 0
  - serializedVersion: 3
    m_Name: stickX
    descriptiveName: 
    descriptiveNegativeName: 
    negativeButton: 
    positiveButton: 
    altNegativeButton: 
    altPositiveButton: 
    gravity: 1000
    dead: .00999999978
    sensitivity: 10
    snap: 0
    invert: 0
    type: 2
    axis: 0
    joyNum: 0
  - serializedVersion: 3
    m_Name: stickY
    descriptiveName: 
    descriptiveNegativeName: 
    negativeButton: 
    positiveButton: 
    altNegativeButton: 
    altPositiveButton: 
    gravity: 1000
    dead: .00999999978
    sensitivity: 10
    snap: 0
    invert: 0
    type: 2
    axis: 1
    joyNum: 0
  - serializedVersion: 3
    m_Name: stickZ_X
    descriptiveName: 
    descriptiveNegativeName: 
    negativeButton: 
    positiveButton: 
    altNegativeButton: 
    altPositiveButton: 
    gravity: 1000
    dead: .00999999978
    sensitivity: 10
    snap: 0
    invert: 0
    type: 2
    axis: 2
    joyNum: 0
  - serializedVersion: 3
    m_Name: stickZ_Y
    descriptiveName: 
    descriptiveNegativeName: 
    negativeButton: 
    positiveButton: 
    altNegativeButton: 
    altPositiveButton: 
    gravity: 1000
    dead: .00999999978
    sensitivity: 10
    snap: 0
    invert: 0
    type: 2
    axis: 5
    joyNum: 0
  - serializedVersion: 3
    m_Name: "\u25CB"
    descriptiveName: 
    descriptiveNegativeName: 
    negativeButton: 
    positiveButton: joystick button 1
    altNegativeButton: 
    altPositiveButton: 
    gravity: 1000
    dead: .00100000005
    sensitivity: 1000
    snap: 0
    invert: 0
    type: 0
    axis: 0
    joyNum: 0
  - serializedVersion: 3
    m_Name: x
    descriptiveName: 
    descriptiveNegativeName: 
    negativeButton: 
    positiveButton: joystick button 2
    altNegativeButton: 
    altPositiveButton: 
    gravity: 1000
    dead: .00100000005
    sensitivity: 1000
    snap: 0
    invert: 0
    type: 0
    axis: 0
    joyNum: 0
  - serializedVersion: 3
    m_Name: "\u25B3"
    descriptiveName: 
    descriptiveNegativeName: 
    negativeButton: 
    positiveButton: joystick button 0
    altNegativeButton: 
    altPositiveButton: 
    gravity: 1000
    dead: .00100000005
    sensitivity: 1000
    snap: 0
    invert: 0
    type: 0
    axis: 0
    joyNum: 0
  - serializedVersion: 3
    m_Name: "\u25A1"
    descriptiveName: 
    descriptiveNegativeName: 
    negativeButton: 
    positiveButton: joystick button 3
    altNegativeButton: 
    altPositiveButton: 
    gravity: 1000
    dead: .00100000005
    sensitivity: 1000
    snap: 0
    invert: 0
    type: 0
    axis: 0
    joyNum: 0
  - serializedVersion: 3
    m_Name: L1
    descriptiveName: 
    descriptiveNegativeName: 
    negativeButton: 
    positiveButton: joystick button 6
    altNegativeButton: 
    altPositiveButton: 
    gravity: 1000
    dead: .00100000005
    sensitivity: 1000
    snap: 0
    invert: 0
    type: 0
    axis: 0
    joyNum: 0
  - serializedVersion: 3
    m_Name: R1
    descriptiveName: 
    descriptiveNegativeName: 
    negativeButton: 
    positiveButton: joystick button 7
    altNegativeButton: 
    altPositiveButton: 
    gravity: 1000
    dead: .00100000005
    sensitivity: 1000
    snap: 0
    invert: 0
    type: 0
    axis: 0
    joyNum: 0
  - serializedVersion: 3
    m_Name: L2
    descriptiveName: 
    descriptiveNegativeName: 
    negativeButton: 
    positiveButton: joystick button 4
    altNegativeButton: 
    altPositiveButton: 
    gravity: 1000
    dead: .00100000005
    sensitivity: 1000
    snap: 0
    invert: 0
    type: 0
    axis: 0
    joyNum: 0
  - serializedVersion: 3
    m_Name: R2
    descriptiveName: 
    descriptiveNegativeName: 
    negativeButton: 
    positiveButton: joystick button 5
    altNegativeButton: 
    altPositiveButton: 
    gravity: 1000
    dead: .00100000005
    sensitivity: 1000
    snap: 0
    invert: 0
    type: 0
    axis: 0
    joyNum: 0
  - serializedVersion: 3
    m_Name: start
    descriptiveName: 
    descriptiveNegativeName: 
    negativeButton: 
    positiveButton: joystick button 8
    altNegativeButton: 
    altPositiveButton: 
    gravity: 1000
    dead: .00100000005
    sensitivity: 1000
    snap: 0
    invert: 0
    type: 0
    axis: 0
    joyNum: 0
  - serializedVersion: 3
    m_Name: select
    descriptiveName: 
    descriptiveNegativeName: 
    negativeButton: 
    positiveButton: joystick button 9
    altNegativeButton: 
    altPositiveButton: 
    gravity: 1000
    dead: .00100000005
    sensitivity: 1000
    snap: 0
    invert: 0
    type: 0
    axis: 0
    joyNum: 0
  - serializedVersion: 3
    m_Name: L3
    descriptiveName: 
    descriptiveNegativeName: 
    negativeButton: 
    positiveButton: joystick button 10
    altNegativeButton: 
    altPositiveButton: 
    gravity: 1000
    dead: .00100000005
    sensitivity: 1000
    snap: 0
    invert: 0
    type: 0
    axis: 0
    joyNum: 0
  - serializedVersion: 3
    m_Name: R3
    descriptiveName: 
    descriptiveNegativeName: 
    negativeButton: 
    positiveButton: joystick button 11
    altNegativeButton: 
    altPositiveButton: 
    gravity: 1000
    dead: .00100000005
    sensitivity: 1000
    snap: 0
    invert: 0
    type: 0
    axis: 0
    joyNum: 0
  - serializedVersion: 3
    m_Name: hatX
    descriptiveName: 
    descriptiveNegativeName: 
    negativeButton: 
    positiveButton: 
    altNegativeButton: 
    altPositiveButton: 
    gravity: 1000
    dead: .00100000005
    sensitivity: 1000
    snap: 0
    invert: 0
    type: 2
    axis: 8
    joyNum: 0
  - serializedVersion: 3
    m_Name: hatY
    descriptiveName: 
    descriptiveNegativeName: 
    negativeButton: 
    positiveButton: 
    altNegativeButton: 
    altPositiveButton: 
    gravity: 1000
    dead: .00100000005
    sensitivity: 1000
    snap: 0
    invert: 0
    type: 2
    axis: 9
    joyNum: 0
  - serializedVersion: 3
    m_Name: axis0
    descriptiveName: 
    descriptiveNegativeName: 
    negativeButton: 
    positiveButton: 
    altNegativeButton: 
    altPositiveButton: 
    gravity: 1000
    dead: .00100000005
    sensitivity: 1000
    snap: 0
    invert: 0
    type: 2
    axis: 9
    joyNum: 0
  - serializedVersion: 3
    m_Name: axis1
    descriptiveName: 
    descriptiveNegativeName: 
    negativeButton: 
    positiveButton: 
    altNegativeButton: 
    altPositiveButton: 
    gravity: 1000
    dead: .00100000005
    sensitivity: 1000
    snap: 0
    invert: 0
    type: 2
    axis: 0
    joyNum: 0
  - serializedVersion: 3
    m_Name: axis2
    descriptiveName: 
    descriptiveNegativeName: 
    negativeButton: 
    positiveButton: 
    altNegativeButton: 
    altPositiveButton: 
    gravity: 1000
    dead: .00100000005
    sensitivity: 1000
    snap: 0
    invert: 0
    type: 2
    axis: 1
    joyNum: 0
  - serializedVersion: 3
    m_Name: axis3
    descriptiveName: 
    descriptiveNegativeName: 
    negativeButton: 
    positiveButton: 
    altNegativeButton: 
    altPositiveButton: 
    gravity: 4
    dead: .400000006
    sensitivity: 4
    snap: 1
    invert: 0
    type: 2
    axis: 2
    joyNum: 0
  - serializedVersion: 3
    m_Name: axis4
    descriptiveName: 
    descriptiveNegativeName: 
    negativeButton: 
    positiveButton: 
    altNegativeButton: 
    altPositiveButton: 
    gravity: 1000
    dead: .00100000005
    sensitivity: 1000
    snap: 0
    invert: 0
    type: 2
    axis: 3
    joyNum: 0
  - serializedVersion: 3
    m_Name: axis5
    descriptiveName: 
    descriptiveNegativeName: 
    negativeButton: 
    positiveButton: 
    altNegativeButton: 
    altPositiveButton: 
    gravity: 1000
    dead: .00100000005
    sensitivity: 1000
    snap: 0
    invert: 0
    type: 2
    axis: 4
    joyNum: 0
  - serializedVersion: 3
    m_Name: axis6
    descriptiveName: 
    descriptiveNegativeName: 
    negativeButton: 
    positiveButton: 
    altNegativeButton: 
    altPositiveButton: 
    gravity: 4
    dead: .400000006
    sensitivity: 4
    snap: 1
    invert: 0
    type: 2
    axis: 5
    joyNum: 0
  - serializedVersion: 3
    m_Name: axis7
    descriptiveName: 
    descriptiveNegativeName: 
    negativeButton: 
    positiveButton: 
    altNegativeButton: 
    altPositiveButton: 
    gravity: 1000
    dead: .00100000005
    sensitivity: 1000
    snap: 0
    invert: 0
    type: 2
    axis: 6
    joyNum: 0
  - serializedVersion: 3
    m_Name: axis8
    descriptiveName: 
    descriptiveNegativeName: 
    negativeButton: 
    positiveButton: 
    altNegativeButton: 
    altPositiveButton: 
    gravity: 1000
    dead: .00100000005
    sensitivity: 1000
    snap: 0
    invert: 0
    type: 2
    axis: 7
    joyNum: 0
  - serializedVersion: 3
    m_Name: axis9
    descriptiveName: 
    descriptiveNegativeName: 
    negativeButton: 
    positiveButton: 
    altNegativeButton: 
    altPositiveButton: 
    gravity: 1000
    dead: .00100000005
    sensitivity: 1000
    snap: 0
    invert: 0
    type: 2
    axis: 8
    joyNum: 0
  - serializedVersion: 3
    m_Name: axis10
    descriptiveName: 
    descriptiveNegativeName: 
    negativeButton: 
    positiveButton: 
    altNegativeButton: 
    altPositiveButton: 
    gravity: 1000
    dead: .00100000005
    sensitivity: 1000
    snap: 0
    invert: 0
    type: 2
    axis: 9
    joyNum: 0
  - serializedVersion: 3
    m_Name: axis11
    descriptiveName: 
    descriptiveNegativeName: 
    negativeButton: 
    positiveButton: 
    altNegativeButton: 
    altPositiveButton: 
    gravity: 1000
    dead: .00100000005
    sensitivity: 1000
    snap: 0
    invert: 0
    type: 2
    axis: 10
    joyNum: 0
  - serializedVersion: 3
    m_Name: axis12
    descriptiveName: 
    descriptiveNegativeName: 
    negativeButton: 
    positiveButton: 
    altNegativeButton: 
    altPositiveButton: 
    gravity: 1000
    dead: .00100000005
    sensitivity: 1000
    snap: 0
    invert: 0
    type: 2
    axis: 11
    joyNum: 0
  - serializedVersion: 3
    m_Name: axis13
    descriptiveName: 
    descriptiveNegativeName: 
    negativeButton: 
    positiveButton: 
    altNegativeButton: 
    altPositiveButton: 
    gravity: 1000
    dead: .00100000005
    sensitivity: 1000
    snap: 0
    invert: 0
    type: 2
    axis: 12
    joyNum: 0
  - serializedVersion: 3
    m_Name: axis14
    descriptiveName: 
    descriptiveNegativeName: 
    negativeButton: 
    positiveButton: 
    altNegativeButton: 
    altPositiveButton: 
    gravity: 1000
    dead: .00100000005
    sensitivity: 1000
    snap: 0
    invert: 0
    type: 2
    axis: 13
    joyNum: 0
  - serializedVersion: 3
    m_Name: axis15
    descriptiveName: 
    descriptiveNegativeName: 
    negativeButton: 
    positiveButton: 
    altNegativeButton: 
    altPositiveButton: 
    gravity: 1000
    dead: .00100000005
    sensitivity: 1000
    snap: 0
    invert: 0
    type: 2
    axis: 14
    joyNum: 0
  - serializedVersion: 3
    m_Name: axis16
    descriptiveName: 
    descriptiveNegativeName: 
    negativeButton: 
    positiveButton: 
    altNegativeButton: 
    altPositiveButton: 
    gravity: 1000
    dead: .00100000005
    sensitivity: 1000
    snap: 0
    invert: 0
    type: 2
    axis: 15
    joyNum: 0
  - serializedVersion: 3
    m_Name: axis17
    descriptiveName: 
    descriptiveNegativeName: 
    negativeButton: 
    positiveButton: 
    altNegativeButton: 
    altPositiveButton: 
    gravity: 1000
    dead: .00100000005
    sensitivity: 1000
    snap: 0
    invert: 0
    type: 2
    axis: 16
    joyNum: 0
  - serializedVersion: 3
    m_Name: axis18
    descriptiveName: 
    descriptiveNegativeName: 
    negativeButton: 
    positiveButton: 
    altNegativeButton: 
    altPositiveButton: 
    gravity: 1000
    dead: .00100000005
    sensitivity: 1000
    snap: 0
    invert: 0
    type: 2
    axis: 17
    joyNum: 0
